<?xml version="1.0" encoding="utf-8"?>
<!-- Generator: Adobe Illustrator 25.3.1, SVG Export Plug-In . SVG Version: 6.00 Build 0)  -->
<svg version="1.1" baseProfile="basic" id="Слой_1"
	 xmlns="http://www.w3.org/2000/svg" xmlns:xlink="http://www.w3.org/1999/xlink" x="0px" y="0px" width="8.8px" height="8.9px"
	 viewBox="0 0 8.8 8.9" xml:space="preserve">
<style type="text/css">
	.st0{fill:#154283;}
</style>
<path class="st0" d="M8.5,6.7L7,5.3C6.7,5.1,6.3,5,6,5.3L5.7,5.5C5.6,5.6,5.4,5.8,5.4,5.8c-0.1,0-0.3-0.1-0.4-0.2l-0.1,0
	C3.6,4.7,3,3.6,3,3.6C3,3.4,3,3.2,3.1,3.1l0.3-0.5c0.2-0.3,0.2-0.7-0.1-1L2.1,0.5C1.9,0.3,1.6,0,1.3,0C0.9,0,0.7,0.3,0.5,0.5l0,0.1
	C0,1.3-0.1,2.1,0.1,3C0.4,4.7,1.9,6.6,4,8C5,8.6,5.8,8.9,6.6,8.9c0.2,0,0.5,0,0.7-0.1c1-0.3,1.4-1.1,1.4-1.1C8.8,7.4,8.8,7,8.5,6.7
	 M8.2,7.5c0,0-0.3,0.6-1.1,0.8C6.4,8.5,5.4,8.3,4.3,7.5c-2-1.3-3.4-3-3.7-4.6c-0.2-0.8,0-1.5,0.3-2l0-0.1c0.1-0.2,0.2-0.3,0.3-0.3h0
	c0.1,0,0.3,0.2,0.4,0.3L3,2C3,2.1,3.1,2.2,3,2.3L2.6,2.8l0,0c-0.2,0.3-0.2,0.7-0.1,1c0,0.1,0.7,1.3,2,2.2l0,0
	c0.2,0.1,0.5,0.3,0.8,0.3C5.7,6.3,6,6,6.1,5.9l0.3-0.2c0.1-0.1,0.2-0.1,0.3,0l1.5,1.4C8.2,7.2,8.3,7.4,8.2,7.5"/>
</svg>
